…
## Question 1

``` r
birthday <- function(n){
  birthdays <- sample(1:365, n, replace = TRUE)
  any(duplicated(birthdays))
}

prob <- tibble(n = 2:50) %>%
  mutate(prob = map_dbl(n, ~mean(replicate(10000, birthday(.x)))))
prob
```

    ## # A tibble: 49 × 2
    ##        n   prob
    ##    <int>  <dbl>
    ##  1     2 0.0028
    ##  2     3 0.0087
    ##  3     4 0.0143
    ##  4     5 0.0288
    ##  5     6 0.0411
    ##  6     7 0.0562
    ##  7     8 0.0697
    ##  8     9 0.0977
    ##  9    10 0.118 
    ## 10    11 0.142 
    ## # ℹ 39 more rows
…
city_proportions <- suicide |>
  mutate(
    test_results = map2(unsolved_homicides, total_homicides, \(x,y) run_prop_test(x, y)
    )
  ) |>
  unnest(test_results)

city_proportions
```

    ## # A tibble: 50 × 6
    ##    city_state     total_homicides unsolved_homicides estimate conf.low conf.high
    ##    <chr>                    <int>              <int>    <dbl>    <dbl>     <dbl>
    ##  1 Albuquerque, …             378                146    0.386    0.337     0.438
    ##  2 Atlanta, GA                973                373    0.383    0.353     0.415
    ##  3 Baltimore, MD             2827               1825    0.646    0.628     0.663
    ##  4 Baton Rouge, …             424                196    0.462    0.414     0.511
    ##  5 Birmingham, AL             800                347    0.434    0.399     0.469
    ##  6 Boston, MA                 614                310    0.505    0.465     0.545
    ##  7 Buffalo, NY                521                319    0.612    0.569     0.654
    ##  8 Charlotte, NC              687                206    0.300    0.266     0.336
    ##  9 Chicago, IL               5535               4073    0.736    0.724     0.747
    ## 10 Cincinnati, OH             694                309    0.445    0.408     0.483
    ## # ℹ 40 more rows
…
